Jan 05, 2022 11:13:15 AM week2final.UserImp LogFile
INFO: Start
Jan 05, 2022 11:28:41 AM week2final.UserImp LogFile
INFO: Start
Jan 05, 2022 11:42:04 AM week2final.UserImp LogFile
INFO: Start
Jan 05, 2022 11:44:47 AM week2final.UserImp LogFile
INFO: Start
Jan 05, 2022 11:47:28 AM week2final.UserImp LogFile
INFO: Start
