Jan 05, 2022 11:47:35 AM week2final.UserImp LogFile
INFO: Start
Jan 05, 2022 11:48:48 AM week2final.UserImp LogFile
INFO: Start
Jan 05, 2022 11:49:43 AM week2final.UserImp LogFile
INFO: Start
Jan 05, 2022 11:54:33 AM week2final.UserImp LogFile
INFO: Start
Jan 05, 2022 11:54:41 AM week2final.UserImp LogFile
INFO: user1 has log in
